<svg id="fe93ff64-a18b-49f4-bb52-e425cf20d0d6" data-name="Layer 1" xmlns="http://www.w3.org/2000/svg" width="1050"
     height="594.02" viewBox="0 0 1050 594.02">
    <title>posting photo</title>
    <ellipse cx="525" cy="561.02" rx="525" ry="33" fill="#6c63ff" opacity="0.1"/>
    <polygon
            points="497.09 549.99 318.9 547.71 319.43 543.14 328.04 467.75 484.53 467.75 496.04 543.14 496.92 548.85 497.09 549.99"
            fill="#d0d2d5"/>
    <polygon points="496.92 548.85 408 548.85 318.9 547.71 319.43 543.14 496.04 543.14 496.92 548.85" opacity="0.1"/>
    <rect x="289.2" y="544.28" width="236.45" height="5.71" fill="#d0d2d5"/>
    <path d="M826.24,167.93A14.87,14.87,0,0,0,811.44,153H151.12a14.87,14.87,0,0,0-14.8,14.94V568.2H826.24Z"
          transform="translate(-75 -152.99)" fill="#3f3d56"/>
    <path d="M136.32,564.2v46.88a14.8,14.8,0,0,0,14.8,14.8H811.44a14.8,14.8,0,0,0,14.8-14.8V564.2Z"
          transform="translate(-75 -152.99)" fill="#d0d2d5"/>
    <rect x="89.88" y="25.13" width="636.23" height="359.81" fill="#fff"/>
    <path d="M484.71,608.09a15.43,15.43,0,0,0,12.13-5.88v0a16.06,16.06,0,0,0,1.2-1.76L489.57,599l9.15.07a15.44,15.44,0,0,0,.29-12.22l-12.27,6.36,11.32-8.32a15.42,15.42,0,1,0-25.47,17.26v0A15.43,15.43,0,0,0,484.71,608.09Z"
          transform="translate(-75 -152.99)" fill="#6c63ff"/>
    <polygon points="425.13 472.89 496.22 544.28 485.31 472.89 425.13 472.89" opacity="0.1"/>
    <path d="M709.94,364.1a1.48,1.48,0,0,0,0-.21,55.29,55.29,0,0,0-2.66-14.57c-.09-.27-.17-.54-.27-.8a55.77,55.77,0,0,0-21.32-28,55.47,55.47,0,0,0-72.69,9A78.52,78.52,0,0,0,608.57,314a248.45,248.45,0,0,1-44,1.64,177.65,177.65,0,0,0,27.91,10.14l-.34,1.27a178.73,178.73,0,0,1-31.19-11.67l-3-1.46,3.36.22a249.73,249.73,0,0,0,46.82-1.35,79.17,79.17,0,0,0-13.8-21.9c-25.18-2.54-50.17-7.82-73.48-18.3l.54-1.19c22.7,10.2,47,15.45,71.61,18a78.63,78.63,0,0,0-125,13.28A108.05,108.05,0,0,0,441.16,242a251.7,251.7,0,0,1-41.45,12.56,250.58,250.58,0,0,1-64.81,5.14,177.9,177.9,0,0,0,27.9,10.14l-.34,1.26a179,179,0,0,1-31.19-11.66l-3-1.47,3.35.22A248.9,248.9,0,0,0,440.24,241c-1.29-1.42-2.63-2.81-4-4.17-43.06.87-89.95.45-132.4-15A108.28,108.28,0,0,0,252.44,314c0,20.32,5.58,48.27,15.3,76.31A325.56,325.56,0,0,0,283,427.06c3,6,6.12,11.9,9.44,17.52h0a198.58,198.58,0,0,0,13.16,19.71c.86,1.13,1.73,2.24,2.6,3.32a120.36,120.36,0,0,0,16.42,17h0q1.82,1.52,3.67,2.9A69.49,69.49,0,0,0,338.82,494a48.34,48.34,0,0,0,19.81,5.38c.55,0,1.09,0,1.64,0v.23h294v-.23h.22a14.74,14.74,0,0,0,5-.88c10.4-3.69,20-18.5,27.93-37.21,1.76-4.15,3.44-8.49,5-12.95,1.41-3.93,2.75-8,4-12a371.64,371.64,0,0,0,9.25-36.12c2.8-13.88,4.35-26,4.35-33.68C710,365.76,710,364.93,709.94,364.1Z"
          transform="translate(-75 -152.99)" fill="#6c63ff" opacity="0.1"/>
    <path d="M434.91,235.5a107.89,107.89,0,0,0-129.62-14.61C346.83,235.77,392.68,236.32,434.91,235.5Z"
          transform="translate(-75 -152.99)" fill="#6c63ff" opacity="0.1"/>
    <path d="M675.72,477.05l-45.37-78.59a1.45,1.45,0,0,0-2.51,0l-45.37,78.59a1.45,1.45,0,0,0,1.25,2.17h13.54a1.46,1.46,0,0,1,1.45,1.44v16.79a1.44,1.44,0,0,0,1.44,1.45h17.66a1.45,1.45,0,0,0,1.45-1.45v-8.1a1.44,1.44,0,0,1,1.44-1.45h16.79a1.45,1.45,0,0,1,1.45,1.45v8.1a1.45,1.45,0,0,0,1.45,1.45H658a1.44,1.44,0,0,0,1.37-1,1.34,1.34,0,0,0,.08-.46V480.66a1.45,1.45,0,0,1,1.45-1.44h13.53A1.45,1.45,0,0,0,675.72,477.05Zm-63.26,8.69a1.4,1.4,0,0,1-1,.43h-6.37a1.45,1.45,0,0,1-1.45-1.45,1.47,1.47,0,0,1,1.45-1.45h6.37a1.45,1.45,0,0,1,1.45,1.45A1.4,1.4,0,0,1,612.46,485.74Zm41.68,0a1.4,1.4,0,0,1-1,.43h-6.37a1.45,1.45,0,0,1-1-2.47,1.4,1.4,0,0,1,1-.43h6.37a1.45,1.45,0,0,1,1.45,1.45A1.4,1.4,0,0,1,654.14,485.74Z"
          transform="translate(-75 -152.99)" fill="#6c63ff" opacity="0.1"/>
    <path d="M395.28,477.74l-45.37-78.59a1.45,1.45,0,0,0-2.5,0L308.21,467A119.89,119.89,0,0,0,324.63,484H331a1.45,1.45,0,0,1,1.45,1.45,1.47,1.47,0,0,1-1.45,1.45h-2.69a70.22,70.22,0,0,0,10.51,6.53V490a1.44,1.44,0,0,1,1.45-1.44h16.79A1.44,1.44,0,0,1,358.5,490v8.1a1.51,1.51,0,0,0,.13.61,1.44,1.44,0,0,0,1.32.84h17.66a1.41,1.41,0,0,0,1.15-.58,1.44,1.44,0,0,0,.29-.87V481.36a1.45,1.45,0,0,1,1.45-1.45H394A1.44,1.44,0,0,0,395.28,477.74Zm-30,6.65a1.43,1.43,0,0,1,1-.43h6.36a1.45,1.45,0,0,1,1.45,1.45,1.45,1.45,0,0,1-1.45,1.45h-6.36a1.45,1.45,0,0,1-1.45-1.45A1.44,1.44,0,0,1,365.29,484.39Zm-28.5-29.08a1.44,1.44,0,0,1-1.44-1.45v-11a1.44,1.44,0,0,1,1.44-1.45h23.74a1.45,1.45,0,0,1,1.44,1.45v11a1.45,1.45,0,0,1-1.44,1.45Z"
          transform="translate(-75 -152.99)" fill="#6c63ff" opacity="0.1"/>
    <path d="M574.63,336.57H518.48V324.42a2.9,2.9,0,0,0-2.9-2.9H499.09V308.58a1.82,1.82,0,0,0-1.83-1.82H476a1.83,1.83,0,0,0-1.83,1.82v12.94H454.81a2.9,2.9,0,0,0-2.9,2.9v12.14H398.37a.58.58,0,0,0-.59.59v161.2a.58.58,0,0,0,.59.59H434a.58.58,0,0,0,.59-.59V476.68a.6.6,0,0,1,.59-.6h15a.6.6,0,0,1,.59.6v21.68a.58.58,0,0,0,.59.59h70.32a.59.59,0,0,0,.59-.59V476.68a.59.59,0,0,1,.58-.6h15a.59.59,0,0,1,.59.6v21.68a.59.59,0,0,0,.59.59h35.59a.59.59,0,0,0,.59-.59V337.16A.59.59,0,0,0,574.63,336.57Zm-146.46,132a.58.58,0,0,1-.59.59h-22a.58.58,0,0,1-.59-.59v-7.5a.59.59,0,0,1,.59-.6h22a.59.59,0,0,1,.59.6Zm0-19.39a.59.59,0,0,1-.59.59h-22a.59.59,0,0,1-.59-.59v-7.51a.59.59,0,0,1,.59-.59h22a.59.59,0,0,1,.59.59Zm0-19.4a.58.58,0,0,1-.59.59h-22a.58.58,0,0,1-.59-.59v-7.5a.58.58,0,0,1,.59-.59h22a.58.58,0,0,1,.59.59Zm0-19.39a.58.58,0,0,1-.59.59h-22a.58.58,0,0,1-.59-.59v-7.5a.58.58,0,0,1,.59-.59h22a.58.58,0,0,1,.59.59Zm0-19.39a.59.59,0,0,1-.59.59h-22A.59.59,0,0,1,405,391v-7.51a.59.59,0,0,1,.59-.59h22a.59.59,0,0,1,.59.59Zm0-19.4a.58.58,0,0,1-.59.59h-22a.58.58,0,0,1-.59-.59v-7.5a.58.58,0,0,1,.59-.59h22a.58.58,0,0,1,.59.59Zm0-19.39a.58.58,0,0,1-.59.59h-22a.58.58,0,0,1-.59-.59v-7.5a.58.58,0,0,1,.59-.59h22a.58.58,0,0,1,.59.59Zm52.1,116.36a.58.58,0,0,1-.59.59h-22a.58.58,0,0,1-.59-.59v-7.5a.59.59,0,0,1,.59-.6h22a.59.59,0,0,1,.59.6Zm0-19.39a.59.59,0,0,1-.59.59h-22a.59.59,0,0,1-.59-.59v-7.51a.59.59,0,0,1,.59-.59h22a.59.59,0,0,1,.59.59Zm0-19.4a.58.58,0,0,1-.59.59h-22a.58.58,0,0,1-.59-.59v-7.5a.58.58,0,0,1,.59-.59h22a.58.58,0,0,1,.59.59Zm0-19.39a.58.58,0,0,1-.59.59h-22a.58.58,0,0,1-.59-.59v-7.5a.58.58,0,0,1,.59-.59h22a.58.58,0,0,1,.59.59Zm0-19.39a.59.59,0,0,1-.59.59h-22a.59.59,0,0,1-.59-.59v-7.51a.59.59,0,0,1,.59-.59h22a.59.59,0,0,1,.59.59Zm0-19.4a.58.58,0,0,1-.59.59h-22a.58.58,0,0,1-.59-.59v-7.5a.58.58,0,0,1,.59-.59h22a.58.58,0,0,1,.59.59Zm0-19.39a.58.58,0,0,1-.59.59h-22a.58.58,0,0,1-.59-.59v-7.5a.58.58,0,0,1,.59-.59h22a.58.58,0,0,1,.59.59Zm35.61,116.36a.59.59,0,0,1-.59.59h-22a.59.59,0,0,1-.59-.59v-7.5a.6.6,0,0,1,.59-.6h22a.6.6,0,0,1,.59.6Zm0-19.39a.6.6,0,0,1-.59.59h-22a.6.6,0,0,1-.59-.59v-7.51a.6.6,0,0,1,.59-.59h22a.6.6,0,0,1,.59.59Zm0-19.4a.59.59,0,0,1-.59.59h-22a.59.59,0,0,1-.59-.59v-7.5a.59.59,0,0,1,.59-.59h22a.59.59,0,0,1,.59.59Zm0-19.39a.59.59,0,0,1-.59.59h-22a.59.59,0,0,1-.59-.59v-7.5a.59.59,0,0,1,.59-.59h22a.59.59,0,0,1,.59.59Zm0-19.39a.6.6,0,0,1-.59.59h-22a.6.6,0,0,1-.59-.59v-7.51a.6.6,0,0,1,.59-.59h22a.6.6,0,0,1,.59.59Zm0-19.4a.59.59,0,0,1-.59.59h-22a.59.59,0,0,1-.59-.59v-7.5a.59.59,0,0,1,.59-.59h22a.59.59,0,0,1,.59.59Zm0-19.39a.59.59,0,0,1-.59.59h-22a.59.59,0,0,1-.59-.59v-7.5a.59.59,0,0,1,.59-.59h22a.59.59,0,0,1,.59.59ZM568,468.55a.59.59,0,0,1-.59.59h-22a.58.58,0,0,1-.59-.59v-7.5a.59.59,0,0,1,.59-.6h22a.6.6,0,0,1,.59.6Zm0-19.39a.6.6,0,0,1-.59.59h-22a.59.59,0,0,1-.59-.59v-7.51a.59.59,0,0,1,.59-.59h22a.6.6,0,0,1,.59.59Zm0-19.4a.59.59,0,0,1-.59.59h-22a.58.58,0,0,1-.59-.59v-7.5a.58.58,0,0,1,.59-.59h22a.59.59,0,0,1,.59.59Zm0-19.39a.59.59,0,0,1-.59.59h-22a.58.58,0,0,1-.59-.59v-7.5a.58.58,0,0,1,.59-.59h22a.59.59,0,0,1,.59.59ZM568,391a.6.6,0,0,1-.59.59h-22a.59.59,0,0,1-.59-.59v-7.51a.59.59,0,0,1,.59-.59h22a.6.6,0,0,1,.59.59Zm0-19.4a.59.59,0,0,1-.59.59h-22a.58.58,0,0,1-.59-.59v-7.5a.58.58,0,0,1,.59-.59h22a.59.59,0,0,1,.59.59Zm0-19.39a.59.59,0,0,1-.59.59h-22a.58.58,0,0,1-.59-.59v-7.5a.58.58,0,0,1,.59-.59h22a.59.59,0,0,1,.59.59Z"
          transform="translate(-75 -152.99)" fill="#6c63ff" opacity="0.1"/>
    <path d="M414.7,292.87a12.6,12.6,0,0,0-7.33.8,10.79,10.79,0,0,1-8.81,0,12.37,12.37,0,0,0-10.36.2,6.33,6.33,0,0,1-3,.75c-4.2,0-7.7-4.23-8.42-9.81a8.11,8.11,0,0,0,2.09-2.27c2.47-4,6.28-6.51,10.56-6.51s8.06,2.51,10.52,6.44a8.1,8.1,0,0,0,7,3.83h.11C410.4,286.28,413.3,289,414.7,292.87Z"
          transform="translate(-75 -152.99)" fill="#6c63ff" opacity="0.1"/>
    <path d="M427.5,275.35l-6.79,4.31,4.12-7.5a6.73,6.73,0,0,0-4.1-1.46h-.11a8.22,8.22,0,0,1-1.41-.1l-2.3,1.45,1-1.79a8.19,8.19,0,0,1-4-3.05l-4.12,2.61,2.6-4.73a12.05,12.05,0,0,0-9.22-4.67c-4.29,0-8.1,2.55-10.57,6.52a7.87,7.87,0,0,1-7,3.76h-.23c-4.72,0-8.56,5.36-8.56,12s3.84,12,8.56,12a6.48,6.48,0,0,0,3-.74,12.3,12.3,0,0,1,10.36-.2,10.9,10.9,0,0,0,8.81,0,12.35,12.35,0,0,1,10.27.19,6.31,6.31,0,0,0,3,.73c4.72,0,8.56-5.36,8.56-12A15.22,15.22,0,0,0,427.5,275.35Z"
          transform="translate(-75 -152.99)" fill="#6c63ff" opacity="0.1"/>
    <rect x="505.46" y="102.97" width="371.54" height="447.42" rx="19.8" fill="#3f3d56"/>
    <rect x="522" y="148.11" width="336" height="357.15" fill="#fff"/>
    <circle cx="691.23" cy="528.8" r="13.08" fill="#fff"/>
    <path d="M766.23,288.17a6,6,0,1,1,6-6A6,6,0,0,1,766.23,288.17Z" transform="translate(-75 -152.99)" fill="#fff"/>
    <path d="M766.23,276.58a5.55,5.55,0,1,1-5.54,5.55,5.55,5.55,0,0,1,5.54-5.55m0-1a6.55,6.55,0,1,0,6.54,6.55,6.54,6.54,0,0,0-6.54-6.55Z"
          transform="translate(-75 -152.99)" fill="#fff"/>
    <path d="M899.2,486.3s0-.08,0-.12a32.12,32.12,0,0,0-1.55-8.47l-.15-.46A32.51,32.51,0,0,0,885.09,461a32.23,32.23,0,0,0-42.25,5.22,47.14,47.14,0,0,0-2.57-9,144.23,144.23,0,0,1-25.59,1A102.72,102.72,0,0,0,830.9,464l-.2.74A103.56,103.56,0,0,1,812.57,458l-1.76-.85,2,.13a144.61,144.61,0,0,0,27.22-.78,46.08,46.08,0,0,0-8-12.73c-14.64-1.48-29.17-4.55-42.72-10.64l.31-.7c13.2,5.94,27.35,9,41.63,10.49a45.71,45.71,0,0,0-72.66,7.72A62.74,62.74,0,0,0,743,415.31a147.66,147.66,0,0,1-24.1,7.3,145.91,145.91,0,0,1-37.68,3,102.72,102.72,0,0,0,16.22,5.89l-.2.73a102.73,102.73,0,0,1-18.13-6.78l-1.76-.85,2,.13a144.71,144.71,0,0,0,63.16-10c-.75-.83-1.53-1.63-2.33-2.42-25,.5-52.29.26-77-8.73a62.93,62.93,0,0,0-29.89,53.62c0,11.81,3.25,28.06,8.9,44.36A187.93,187.93,0,0,0,651,522.91c1.72,3.51,3.55,6.92,5.48,10.18h0a117,117,0,0,0,7.65,11.46c.5.65,1,1.3,1.52,1.93a69.63,69.63,0,0,0,9.54,9.87h0c.71.59,1.42,1.15,2.14,1.68a40.31,40.31,0,0,0,6.11,3.81A28,28,0,0,0,695,565c.31,0,.63,0,.95,0v.13H866.81V565h.12a8.76,8.76,0,0,0,2.89-.51c6-2.15,11.61-10.76,16.23-21.64,1-2.41,2-4.93,2.94-7.52.82-2.29,1.59-4.63,2.33-7a215.07,215.07,0,0,0,5.38-21,110.27,110.27,0,0,0,2.53-19.58C899.23,487.27,899.22,486.79,899.2,486.3Z"
          transform="translate(-75 -152.99)" fill="#6c63ff" opacity="0.1"/>
    <path d="M739.31,411.54A62.72,62.72,0,0,0,664,403.05C688.11,411.7,714.76,412,739.31,411.54Z"
          transform="translate(-75 -152.99)" fill="#6c63ff" opacity="0.1"/>
    <path d="M879.3,552l-26.37-45.69a.84.84,0,0,0-1.46,0L825.09,552a.84.84,0,0,0,.73,1.26h7.87a.85.85,0,0,1,.84.84v9.76a.85.85,0,0,0,.84.84h10.27a.85.85,0,0,0,.84-.84v-4.71a.83.83,0,0,1,.84-.84h9.76a.84.84,0,0,1,.84.84v4.71a.85.85,0,0,0,.84.84H869a.84.84,0,0,0,.8-.57.86.86,0,0,0,0-.27v-9.76a.84.84,0,0,1,.84-.84h7.87A.84.84,0,0,0,879.3,552Zm-36.77,5a.86.86,0,0,1-.6.25h-3.7a.85.85,0,0,1-.84-.84.81.81,0,0,1,.25-.6.84.84,0,0,1,.59-.25h3.7a.85.85,0,0,1,.85.85A.84.84,0,0,1,842.53,557Zm24.23,0a.86.86,0,0,1-.6.25h-3.7a.85.85,0,0,1,0-1.69h3.7a.85.85,0,0,1,.85.85A.84.84,0,0,1,866.76,557Z"
          transform="translate(-75 -152.99)" fill="#6c63ff" opacity="0.1"/>
    <path d="M716.27,552.37,689.9,506.68a.84.84,0,0,0-1.46,0l-22.78,39.46A69.45,69.45,0,0,0,675.2,556h3.7a.84.84,0,0,1,.6,1.43.81.81,0,0,1-.6.25h-1.56a41,41,0,0,0,6.11,3.8v-2a.84.84,0,0,1,.84-.84h9.76a.85.85,0,0,1,.84.84v4.71a.78.78,0,0,0,.08.35.83.83,0,0,0,.76.49H706a.84.84,0,0,0,.67-.34.86.86,0,0,0,.17-.5v-9.76a.84.84,0,0,1,.84-.84h7.87A.84.84,0,0,0,716.27,552.37Zm-17.43,3.86a.83.83,0,0,1,.59-.24h3.71a.83.83,0,0,1,.59,1.43.8.8,0,0,1-.59.25h-3.71a.85.85,0,0,1-.84-.84A.86.86,0,0,1,698.84,556.23Zm-16.57-16.9a.84.84,0,0,1-.84-.85v-6.39a.84.84,0,0,1,.84-.84h13.8a.85.85,0,0,1,.84.84v6.39a.85.85,0,0,1-.84.85Z"
          transform="translate(-75 -152.99)" fill="#6c63ff" opacity="0.1"/>
    <path d="M820.53,470.3H787.89v-7.05a1.69,1.69,0,0,0-1.69-1.69h-9.58V454a1.06,1.06,0,0,0-1.06-1.06H763.21a1.05,1.05,0,0,0-1.06,1.06v7.52H750.88a1.69,1.69,0,0,0-1.69,1.69v7.05H718.07a.35.35,0,0,0-.35.34v93.72a.35.35,0,0,0,.35.34h20.68a.34.34,0,0,0,.34-.34V551.75a.35.35,0,0,1,.35-.34h8.73a.35.35,0,0,1,.35.34v12.61a.34.34,0,0,0,.34.34h40.88a.34.34,0,0,0,.34-.34V551.75a.34.34,0,0,1,.34-.34h8.74a.34.34,0,0,1,.34.34v12.61a.35.35,0,0,0,.35.34h20.68a.34.34,0,0,0,.34-.34V470.64A.34.34,0,0,0,820.53,470.3ZM735.39,547a.34.34,0,0,1-.34.34H722.27a.34.34,0,0,1-.34-.34v-4.37a.34.34,0,0,1,.34-.34h12.78a.34.34,0,0,1,.34.34Zm0-11.28a.34.34,0,0,1-.34.34H722.27a.34.34,0,0,1-.34-.34v-4.36a.34.34,0,0,1,.34-.34h12.78a.34.34,0,0,1,.34.34Zm0-11.27a.34.34,0,0,1-.34.34H722.27a.34.34,0,0,1-.34-.34v-4.37a.34.34,0,0,1,.34-.34h12.78a.34.34,0,0,1,.34.34Zm0-11.28a.35.35,0,0,1-.34.35H722.27a.35.35,0,0,1-.34-.35v-4.36a.34.34,0,0,1,.34-.34h12.78a.34.34,0,0,1,.34.34Zm0-11.27a.34.34,0,0,1-.34.34H722.27a.34.34,0,0,1-.34-.34v-4.37a.34.34,0,0,1,.34-.34h12.78a.34.34,0,0,1,.34.34Zm0-11.27a.34.34,0,0,1-.34.34H722.27a.34.34,0,0,1-.34-.34v-4.37a.34.34,0,0,1,.34-.34h12.78a.34.34,0,0,1,.34.34Zm0-11.28a.34.34,0,0,1-.34.34H722.27a.34.34,0,0,1-.34-.34V475a.34.34,0,0,1,.34-.34h12.78a.34.34,0,0,1,.34.34ZM765.68,547a.34.34,0,0,1-.34.34H752.56a.34.34,0,0,1-.34-.34v-4.37a.34.34,0,0,1,.34-.34h12.78a.34.34,0,0,1,.34.34Zm0-11.28a.34.34,0,0,1-.34.34H752.56a.34.34,0,0,1-.34-.34v-4.36a.34.34,0,0,1,.34-.34h12.78a.34.34,0,0,1,.34.34Zm0-11.27a.34.34,0,0,1-.34.34H752.56a.34.34,0,0,1-.34-.34v-4.37a.34.34,0,0,1,.34-.34h12.78a.34.34,0,0,1,.34.34Zm0-11.28a.35.35,0,0,1-.34.35H752.56a.35.35,0,0,1-.34-.35v-4.36a.34.34,0,0,1,.34-.34h12.78a.34.34,0,0,1,.34.34Zm0-11.27a.34.34,0,0,1-.34.34H752.56a.34.34,0,0,1-.34-.34v-4.37a.34.34,0,0,1,.34-.34h12.78a.34.34,0,0,1,.34.34Zm0-11.27a.34.34,0,0,1-.34.34H752.56a.34.34,0,0,1-.34-.34v-4.37a.34.34,0,0,1,.34-.34h12.78a.34.34,0,0,1,.34.34Zm0-11.28a.34.34,0,0,1-.34.34H752.56a.34.34,0,0,1-.34-.34V475a.34.34,0,0,1,.34-.34h12.78a.34.34,0,0,1,.34.34ZM786.38,547a.34.34,0,0,1-.34.34H773.26a.34.34,0,0,1-.34-.34v-4.37a.34.34,0,0,1,.34-.34H786a.34.34,0,0,1,.34.34Zm0-11.28a.34.34,0,0,1-.34.34H773.26a.34.34,0,0,1-.34-.34v-4.36a.34.34,0,0,1,.34-.34H786a.34.34,0,0,1,.34.34Zm0-11.27a.34.34,0,0,1-.34.34H773.26a.34.34,0,0,1-.34-.34v-4.37a.34.34,0,0,1,.34-.34H786a.34.34,0,0,1,.34.34Zm0-11.28a.35.35,0,0,1-.34.35H773.26a.35.35,0,0,1-.34-.35v-4.36a.34.34,0,0,1,.34-.34H786a.34.34,0,0,1,.34.34Zm0-11.27a.34.34,0,0,1-.34.34H773.26a.34.34,0,0,1-.34-.34v-4.37a.34.34,0,0,1,.34-.34H786a.34.34,0,0,1,.34.34Zm0-11.27a.34.34,0,0,1-.34.34H773.26a.34.34,0,0,1-.34-.34v-4.37a.34.34,0,0,1,.34-.34H786a.34.34,0,0,1,.34.34Zm0-11.28a.34.34,0,0,1-.34.34H773.26a.34.34,0,0,1-.34-.34V475a.34.34,0,0,1,.34-.34H786a.34.34,0,0,1,.34.34ZM816.67,547a.35.35,0,0,1-.34.34H803.55a.34.34,0,0,1-.34-.34v-4.37a.34.34,0,0,1,.34-.34h12.78a.34.34,0,0,1,.34.34Zm0-11.28a.34.34,0,0,1-.34.34H803.55a.34.34,0,0,1-.34-.34v-4.36a.34.34,0,0,1,.34-.34h12.78a.34.34,0,0,1,.34.34Zm0-11.27a.34.34,0,0,1-.34.34H803.55a.34.34,0,0,1-.34-.34v-4.37a.34.34,0,0,1,.34-.34h12.78a.35.35,0,0,1,.34.34Zm0-11.28a.35.35,0,0,1-.34.35H803.55a.35.35,0,0,1-.34-.35v-4.36a.34.34,0,0,1,.34-.34h12.78a.34.34,0,0,1,.34.34Zm0-11.27a.34.34,0,0,1-.34.34H803.55a.34.34,0,0,1-.34-.34v-4.37a.34.34,0,0,1,.34-.34h12.78a.35.35,0,0,1,.34.34Zm0-11.27a.35.35,0,0,1-.34.34H803.55a.34.34,0,0,1-.34-.34v-4.37a.34.34,0,0,1,.34-.34h12.78a.34.34,0,0,1,.34.34Zm0-11.28a.34.34,0,0,1-.34.34H803.55a.34.34,0,0,1-.34-.34V475a.34.34,0,0,1,.34-.34h12.78a.34.34,0,0,1,.34.34Z"
          transform="translate(-75 -152.99)" fill="#6c63ff" opacity="0.1"/>
    <path d="M727.56,444.9a7.39,7.39,0,0,0-4.26.46,6.34,6.34,0,0,1-2.55.54,6.24,6.24,0,0,1-2.57-.55,7.18,7.18,0,0,0-6,.12,3.72,3.72,0,0,1-1.73.43c-2.44,0-4.47-2.46-4.89-5.7a4.82,4.82,0,0,0,1.22-1.32,6.86,6.86,0,0,1,12.25,0,4.68,4.68,0,0,0,4,2.23h.07C725.06,441.07,726.74,442.62,727.56,444.9Z"
          transform="translate(-75 -152.99)" fill="#6c63ff" opacity="0.1"/>
    <path d="M735,434.71l-4,2.51,2.4-4.36a3.92,3.92,0,0,0-2.39-.85H731a5.55,5.55,0,0,1-.82-.06l-1.34.84.58-1a4.72,4.72,0,0,1-2.34-1.77l-2.4,1.51,1.52-2.75a7,7,0,0,0-5.37-2.71,7.35,7.35,0,0,0-6.14,3.79,4.6,4.6,0,0,1-4.06,2.19h-.13c-2.75,0-5,3.11-5,7s2.23,7,5,7a3.73,3.73,0,0,0,1.73-.44,7.18,7.18,0,0,1,6-.11,6.41,6.41,0,0,0,2.57.55,6.34,6.34,0,0,0,2.55-.54,7.19,7.19,0,0,1,6,.11,3.64,3.64,0,0,0,1.71.43c2.75,0,5-3.12,5-7A8.86,8.86,0,0,0,735,434.71Z"
          transform="translate(-75 -152.99)" fill="#6c63ff" opacity="0.1"/>
    <rect x="988.64" y="269.17" width="5.36" height="44.17" rx="2.29" fill="#3f3d56"/>
    <rect x="810.55" y="234.57" width="3.01" height="14.54" rx="1.5" fill="#3f3d56"/>
    <rect x="810.44" y="261.19" width="3.39" height="25.31" rx="1.69" fill="#3f3d56"/>
    <rect x="810.49" y="295.35" width="3.23" height="25.53" rx="1.61" fill="#3f3d56"/>
    <rect x="812.25" y="186.51" width="179.29" height="364.37" rx="18.54" fill="#3f3d56"/>
    <rect x="884.6" y="197.39" width="25.04" height="5.08" rx="2.54" fill="#e6e8ec"/>
    <circle cx="916.3" cy="199.94" r="2.88" fill="#e6e8ec"/>
    <path d="M1041.22,349H1020.7v2.47A11.73,11.73,0,0,1,1009,363.19H943.54a11.73,11.73,0,0,1-11.73-11.73V349H912.56a14.25,14.25,0,0,0-14.24,14.24V680.14a14.24,14.24,0,0,0,14.24,14.24h128.66a14.23,14.23,0,0,0,14.24-14.24V363.23A14.24,14.24,0,0,0,1041.22,349Z"
          transform="translate(-75 -152.99)" fill="#fff"/>
    <path d="M1037.2,524.68v0a14.33,14.33,0,0,0-.7-3.83,1.72,1.72,0,0,0-.07-.21,14.56,14.56,0,0,0-24.65-5,20.46,20.46,0,0,0-1.16-4.07,65.66,65.66,0,0,1-11.55.43,47.79,47.79,0,0,0,7.32,2.66l-.09.33a46.82,46.82,0,0,1-8.18-3.06l-.79-.39.88.06a65.38,65.38,0,0,0,12.28-.35,20.79,20.79,0,0,0-3.62-5.75,61.91,61.91,0,0,1-19.27-4.79l.14-.32a60.89,60.89,0,0,0,18.78,4.73,20.63,20.63,0,0,0-32.78,3.49,28.35,28.35,0,0,0-7-15.94,66.32,66.32,0,0,1-27.87,4.64,46.76,46.76,0,0,0,7.32,2.66l-.09.33a46.82,46.82,0,0,1-8.18-3.06l-.79-.38.88.06a65.26,65.26,0,0,0,28.49-4.52c-.34-.37-.69-.73-1.05-1.09-11.29.23-23.59.12-34.72-3.94a28.4,28.4,0,0,0-13.48,24.19c0,5.33,1.46,12.66,4,20a83.69,83.69,0,0,0,4,9.64q1.17,2.38,2.47,4.6h0a54,54,0,0,0,3.45,5.17l.69.87a32,32,0,0,0,4.3,4.45h0c.32.27.64.52,1,.76a18.94,18.94,0,0,0,2.75,1.72,12.92,12.92,0,0,0,5.2,1.41h.43v.05h77.09v-.05h.06a3.92,3.92,0,0,0,1.3-.23c2.73-1,5.24-4.85,7.32-9.76.47-1.09.91-2.23,1.33-3.4s.72-2.08,1.05-3.15c1-3.2,1.82-6.49,2.43-9.47a50.32,50.32,0,0,0,1.14-8.83C1037.22,525.12,1037.21,524.9,1037.2,524.68Z"
          transform="translate(-75 -152.99)" fill="#6c63ff" opacity="0.1"/>
    <path d="M965.07,491a28.3,28.3,0,0,0-34-3.83C942,491,954,491.17,965.07,491Z" transform="translate(-75 -152.99)"
          fill="#6c63ff" opacity="0.1"/>
    <path d="M1028.23,554.3l-11.9-20.61a.38.38,0,0,0-.66,0l-11.9,20.61a.38.38,0,0,0,.33.57h3.55a.38.38,0,0,1,.38.38v4.4a.38.38,0,0,0,.38.38H1013a.38.38,0,0,0,.38-.38v-2.12a.38.38,0,0,1,.38-.38h4.4a.38.38,0,0,1,.38.38v2.12a.38.38,0,0,0,.38.38h4.63a.38.38,0,0,0,.36-.26.37.37,0,0,0,0-.12v-4.4a.38.38,0,0,1,.38-.38h3.55A.38.38,0,0,0,1028.23,554.3Zm-16.59,2.28a.39.39,0,0,1-.27.11h-1.67a.38.38,0,0,1-.38-.38.35.35,0,0,1,.11-.26.4.4,0,0,1,.27-.12h1.67a.38.38,0,0,1,.38.38A.37.37,0,0,1,1011.64,556.58Zm10.93,0a.37.37,0,0,1-.27.11h-1.67a.38.38,0,0,1-.38-.38.35.35,0,0,1,.11-.26.4.4,0,0,1,.27-.12h1.67a.38.38,0,0,1,.38.38A.37.37,0,0,1,1022.57,556.58Z"
          transform="translate(-75 -152.99)" fill="#6c63ff" opacity="0.1"/>
    <path d="M954.68,554.48l-11.9-20.61a.38.38,0,0,0-.66,0l-10.27,17.8a32,32,0,0,0,4.3,4.45h1.67a.38.38,0,1,1,0,.75h-.7a18.94,18.94,0,0,0,2.75,1.72v-.88a.38.38,0,0,1,.38-.38h4.41a.38.38,0,0,1,.37.38v2.12a.39.39,0,0,0,.38.38h4.64a.38.38,0,0,0,.3-.15.35.35,0,0,0,.07-.23v-4.4a.38.38,0,0,1,.38-.38h3.55A.38.38,0,0,0,954.68,554.48Zm-7.86,1.75a.35.35,0,0,1,.26-.11h1.67a.38.38,0,1,1,0,.75h-1.67a.38.38,0,0,1-.38-.38A.37.37,0,0,1,946.82,556.23Zm-7.48-7.63a.38.38,0,0,1-.38-.38v-2.88a.38.38,0,0,1,.38-.38h6.23a.38.38,0,0,1,.38.38v2.88a.38.38,0,0,1-.38.38Z"
          transform="translate(-75 -152.99)" fill="#6c63ff" opacity="0.1"/>
    <path d="M1001.72,517.46H987v-3.19a.76.76,0,0,0-.76-.76H981.9v-3.39a.48.48,0,0,0-.47-.48h-5.57a.48.48,0,0,0-.48.48v3.39h-5.09a.76.76,0,0,0-.76.76v3.19h-14a.15.15,0,0,0-.15.15v42.28a.16.16,0,0,0,.15.16h9.33a.16.16,0,0,0,.16-.16V554.2a.15.15,0,0,1,.15-.15h3.94a.16.16,0,0,1,.16.15v5.69a.16.16,0,0,0,.15.16h18.44a.16.16,0,0,0,.16-.16V554.2a.15.15,0,0,1,.15-.15h3.94a.16.16,0,0,1,.16.15v5.69a.16.16,0,0,0,.15.16h9.34a.16.16,0,0,0,.15-.16V517.61A.15.15,0,0,0,1001.72,517.46Zm-38.41,34.61a.16.16,0,0,1-.16.16h-5.76a.16.16,0,0,1-.16-.16v-2a.16.16,0,0,1,.16-.15h5.76a.16.16,0,0,1,.16.15Zm0-5.08a.16.16,0,0,1-.16.15h-5.76a.16.16,0,0,1-.16-.15v-2a.16.16,0,0,1,.16-.16h5.76a.16.16,0,0,1,.16.16Zm0-5.09a.16.16,0,0,1-.16.16h-5.76a.16.16,0,0,1-.16-.16v-2a.16.16,0,0,1,.16-.15h5.76a.16.16,0,0,1,.16.15Zm0-5.09a.16.16,0,0,1-.16.16h-5.76a.16.16,0,0,1-.16-.16v-2a.16.16,0,0,1,.16-.16h5.76a.16.16,0,0,1,.16.16Zm0-5.08a.16.16,0,0,1-.16.15h-5.76a.16.16,0,0,1-.16-.15v-2a.16.16,0,0,1,.16-.15h5.76a.16.16,0,0,1,.16.15Zm0-5.09a.16.16,0,0,1-.16.16h-5.76a.16.16,0,0,1-.16-.16v-2a.16.16,0,0,1,.16-.15h5.76a.16.16,0,0,1,.16.15Zm0-5.08a.16.16,0,0,1-.16.15h-5.76a.16.16,0,0,1-.16-.15v-2a.16.16,0,0,1,.16-.16h5.76a.16.16,0,0,1,.16.16ZM977,552.07a.16.16,0,0,1-.15.16h-5.77a.16.16,0,0,1-.15-.16v-2a.15.15,0,0,1,.15-.15h5.77a.15.15,0,0,1,.15.15Zm0-5.08a.15.15,0,0,1-.15.15h-5.77a.15.15,0,0,1-.15-.15v-2a.16.16,0,0,1,.15-.16h5.77a.16.16,0,0,1,.15.16Zm0-5.09a.16.16,0,0,1-.15.16h-5.77a.16.16,0,0,1-.15-.16v-2a.15.15,0,0,1,.15-.15h5.77a.15.15,0,0,1,.15.15Zm0-5.09a.16.16,0,0,1-.15.16h-5.77a.16.16,0,0,1-.15-.16v-2a.16.16,0,0,1,.15-.16h5.77a.16.16,0,0,1,.15.16Zm0-5.08a.15.15,0,0,1-.15.15h-5.77a.15.15,0,0,1-.15-.15v-2a.15.15,0,0,1,.15-.15h5.77a.15.15,0,0,1,.15.15Zm0-5.09a.16.16,0,0,1-.15.16h-5.77a.16.16,0,0,1-.15-.16v-2a.15.15,0,0,1,.15-.15h5.77a.15.15,0,0,1,.15.15Zm0-5.08a.15.15,0,0,1-.15.15h-5.77a.15.15,0,0,1-.15-.15v-2a.16.16,0,0,1,.15-.16h5.77a.16.16,0,0,1,.15.16Zm9.34,30.51a.16.16,0,0,1-.16.16h-5.76a.16.16,0,0,1-.16-.16v-2a.16.16,0,0,1,.16-.15h5.76a.16.16,0,0,1,.16.15Zm0-5.08a.16.16,0,0,1-.16.15h-5.76a.16.16,0,0,1-.16-.15v-2a.16.16,0,0,1,.16-.16h5.76a.16.16,0,0,1,.16.16Zm0-5.09a.16.16,0,0,1-.16.16h-5.76a.16.16,0,0,1-.16-.16v-2a.16.16,0,0,1,.16-.15h5.76a.16.16,0,0,1,.16.15Zm0-5.09a.16.16,0,0,1-.16.16h-5.76a.16.16,0,0,1-.16-.16v-2a.16.16,0,0,1,.16-.16h5.76a.16.16,0,0,1,.16.16Zm0-5.08a.16.16,0,0,1-.16.15h-5.76a.16.16,0,0,1-.16-.15v-2a.16.16,0,0,1,.16-.15h5.76a.16.16,0,0,1,.16.15Zm0-5.09a.16.16,0,0,1-.16.16h-5.76a.16.16,0,0,1-.16-.16v-2a.16.16,0,0,1,.16-.15h5.76a.16.16,0,0,1,.16.15Zm0-5.08a.16.16,0,0,1-.16.15h-5.76a.16.16,0,0,1-.16-.15v-2a.16.16,0,0,1,.16-.16h5.76a.16.16,0,0,1,.16.16ZM1000,552.07a.16.16,0,0,1-.15.16h-5.77a.16.16,0,0,1-.15-.16v-2a.15.15,0,0,1,.15-.15h5.77a.15.15,0,0,1,.15.15Zm0-5.08a.15.15,0,0,1-.15.15h-5.77a.15.15,0,0,1-.15-.15v-2a.16.16,0,0,1,.15-.16h5.77a.16.16,0,0,1,.15.16Zm0-5.09a.16.16,0,0,1-.15.16h-5.77a.16.16,0,0,1-.15-.16v-2a.15.15,0,0,1,.15-.15h5.77a.15.15,0,0,1,.15.15Zm0-5.09a.16.16,0,0,1-.15.16h-5.77a.16.16,0,0,1-.15-.16v-2a.16.16,0,0,1,.15-.16h5.77a.16.16,0,0,1,.15.16Zm0-5.08a.15.15,0,0,1-.15.15h-5.77a.15.15,0,0,1-.15-.15v-2a.15.15,0,0,1,.15-.15h5.77a.15.15,0,0,1,.15.15Zm0-5.09a.16.16,0,0,1-.15.16h-5.77a.16.16,0,0,1-.15-.16v-2a.15.15,0,0,1,.15-.15h5.77a.15.15,0,0,1,.15.15Zm0-5.08a.15.15,0,0,1-.15.15h-5.77a.15.15,0,0,1-.15-.15v-2a.16.16,0,0,1,.15-.16h5.77a.16.16,0,0,1,.15.16Z"
          transform="translate(-75 -152.99)" fill="#6c63ff" opacity="0.1"/>
    <path d="M959.77,506a3.33,3.33,0,0,0-1.92.21,2.82,2.82,0,0,1-1.15.24,2.72,2.72,0,0,1-1.16-.25,3.27,3.27,0,0,0-2.72.06,1.73,1.73,0,0,1-.78.19c-1.1,0-2-1.11-2.21-2.57a2.06,2.06,0,0,0,.55-.59,3.1,3.1,0,0,1,5.53,0,2.11,2.11,0,0,0,1.83,1h0A2.28,2.28,0,0,1,959.77,506Z"
          transform="translate(-75 -152.99)" fill="#6c63ff" opacity="0.1"/>
    <path d="M963.13,501.41l-1.78,1.12,1.08-2a1.75,1.75,0,0,0-1.08-.39h0a1.51,1.51,0,0,1-.37,0l-.61.38.26-.47a2.19,2.19,0,0,1-1.05-.8l-1.08.68.68-1.24a3.16,3.16,0,0,0-2.42-1.22A3.3,3.3,0,0,0,954,499.2a2.09,2.09,0,0,1-1.83,1h-.06c-1.24,0-2.25,1.41-2.25,3.14s1,3.14,2.25,3.14a1.64,1.64,0,0,0,.78-.19,3.23,3.23,0,0,1,2.72,0,2.9,2.9,0,0,0,2.31,0,3.24,3.24,0,0,1,2.69,0,1.6,1.6,0,0,0,.77.19c1.24,0,2.25-1.4,2.25-3.14A4,4,0,0,0,963.13,501.41Z"
          transform="translate(-75 -152.99)" fill="#6c63ff" opacity="0.1"/>
    <path d="M174.65,693.59a37,37,0,0,1-.8,7.76c-.1.48-.21.95-.32,1.41-2.84,11.39-10.85,19.72-20.41,20.25-.32,0-.64,0-1,0-10.11,0-18.66-8.72-21.48-20.73-.08-.32-.15-.64-.22-1a37,37,0,0,1-.8-7.76c0-16.27,10.07-29.45,22.5-29.45S174.65,677.32,174.65,693.59Z"
          transform="translate(-75 -152.99)" fill="#3f3d56"/>
    <path d="M174.65,693.59a37,37,0,0,1-.8,7.76c-.1.48-.21.95-.32,1.41-.34,0-.67,0-1,0a45.76,45.76,0,0,1-7.36-1,44.92,44.92,0,0,1-6.56,1.5,45.87,45.87,0,0,1-5.14.48l-1.74,0a46.41,46.41,0,0,1-6.16-.41,45.17,45.17,0,0,1-9.67-2.4,45.56,45.56,0,0,1-5.22,1.4c-.08-.32-.15-.64-.22-1a37,37,0,0,1-.8-7.76c0-16.27,10.07-29.45,22.5-29.45S174.65,677.32,174.65,693.59Z"
          transform="translate(-75 -152.99)" opacity="0.1"/>
    <path d="M222.65,638.72a45.6,45.6,0,0,0-4.9-20.61l-26.46,8.23,23.23-13.65a45.71,45.71,0,0,0-34.36-19.59,45.65,45.65,0,0,0-3.57-4.72l-38,11.83,31.17-18.33a45.73,45.73,0,0,0-72,24.39l32.55,37.47L95,618.2a45.74,45.74,0,0,0,40.93,80.7,45.92,45.92,0,0,0,29.28.81,45.74,45.74,0,0,0,55.62-44.66c0-1,0-2-.1-3A45.74,45.74,0,0,0,222.65,638.72Z"
          transform="translate(-75 -152.99)" fill="#6c63ff"/>
    <path d="M221.86,647.2a122.14,122.14,0,0,0-42.34-.54c-15.89,2.63-32.13,8.42-47.67,4.19-9.12-2.48-17-8.22-25.91-11.41a49.18,49.18,0,0,0-26.75-1.6,45.76,45.76,0,0,0,56.69,61.06,45.92,45.92,0,0,0,29.28.81,45.74,45.74,0,0,0,55.62-44.66c0-1,0-2-.1-3A46,46,0,0,0,221.86,647.2Z"
          transform="translate(-75 -152.99)" opacity="0.1"/>
    <path d="M568.71,359.13l-19-.84c-4.35-.19-9.31-.13-12.21,3.11-3.09,3.45-2.28,8.87-.46,13.14s4.48,8.36,4.62,13c.21,7.3-5.78,13.08-11.21,18s-11.23,11-10.44,18.27c.62,5.67,5.14,10.05,9.6,13.59a128.25,128.25,0,0,0,21.85,14c4.43,2.24,9.15,4.26,14.12,4.31,4.36.05,8.58-1.42,12.68-2.9,7.13-2.56,14.45-5.33,19.86-10.62a39.92,39.92,0,0,0,6.9-9.54c9.35-17,11.84-38.26,4.24-56.13a31.55,31.55,0,0,0-7-10.66c-8.1-7.67-20.46-8-31.62-7.91a12.39,12.39,0,0,0-5.92,1.05c-1.77,1-3,3.23-2.18,5.08"
          transform="translate(-75 -152.99)" fill="#393859"/>
    <path d="M544.39,594.37a411.28,411.28,0,0,0,2.24,60.27c.26,2.29.53,4.58,1,6.84,1.28,7,3.9,13.71,5.95,20.54s3.57,14,2.56,21.07q6.6-.69,13.22-1.13l.06-3.4c.12-6.52-2.44-12.88-1.79-19.37.62-6.14,2.6-12.14,2.51-18.31-.09-5.83-2-11.45-2.91-17.21a97.73,97.73,0,0,1-.82-11.6,146.49,146.49,0,0,1,.1-16c.84-10.82,4.06-21.6,2.57-32.35C560.92,587.48,552.5,590.65,544.39,594.37Z"
          transform="translate(-75 -152.99)" fill="#a0616a"/>
    <path d="M564.36,726.39a3,3,0,0,0,1.47-.24A3.2,3.2,0,0,0,567,724a26.23,26.23,0,0,1,3.36-7.55c1.13-1.73,2.51-3.49,2.53-5.55,0-3.33-3.48-5.66-4.21-8.91a14.38,14.38,0,0,0-.62-3.08c-.82-1.75-3-2.35-4.88-2.74-2.56-.54-5.87-.76-7.14,1.52-1.08,1.94.12,4.3.28,6.51.2,3-1.58,5.76-3.5,8.07-2.25,2.72-8.16,9.23-4.56,13,1.35,1.42,4.29.94,6,1Z"
          transform="translate(-75 -152.99)" fill="#3f3d56"/>
    <path d="M603,594.37a409.91,409.91,0,0,1-2.25,60.27c-.25,2.29-.52,4.58-.94,6.84-1.28,7-3.9,13.71-6,20.54s-3.56,14-2.55,21.07q-6.6-.69-13.22-1.13l-.06-3.4c-.12-6.52,2.43-12.88,1.78-19.37-.61-6.14-2.59-12.14-2.5-18.31.09-5.83,2-11.45,2.9-17.21a95.67,95.67,0,0,0,.83-11.6,146.49,146.49,0,0,0-.1-16c-.84-10.82-4.07-21.6-2.57-32.35C586.51,587.48,594.92,590.65,603,594.37Z"
          transform="translate(-75 -152.99)" fill="#a0616a"/>
    <path d="M583.06,726.39a3,3,0,0,1-1.46-.24,3.2,3.2,0,0,1-1.21-2.15,26.23,26.23,0,0,0-3.36-7.55c-1.13-1.73-2.52-3.49-2.53-5.55,0-3.33,3.48-5.66,4.2-8.91a14.39,14.39,0,0,1,.63-3.08c.82-1.75,3-2.35,4.88-2.74,2.56-.54,5.86-.76,7.14,1.52,1.08,1.94-.13,4.3-.28,6.51-.21,3,1.58,5.76,3.5,8.07,2.25,2.72,8.16,9.23,4.56,13-1.35,1.42-4.29.94-6,1Z"
          transform="translate(-75 -152.99)" fill="#3f3d56"/>
    <circle cx="492.31" cy="243.59" r="20.49" fill="#a0616a"/>
    <path d="M555.7,415.05A7,7,0,0,1,556,418a5.74,5.74,0,0,1-1.72,2.66,30.58,30.58,0,0,1-10.15,6.77c-.4,1.29.35,2.62,1.08,3.74,2.46,3.79,5.06,7.47,7.67,11.16a74.72,74.72,0,0,0,17.43,18.77l6-7.54a48.75,48.75,0,0,0,3.48-4.73,47.18,47.18,0,0,0,3.12-6.39l7.33-17c-4.41.89-8.89-1.14-12.66-3.61a4.94,4.94,0,0,1-1.84-1.76,5,5,0,0,1-.4-2.18q-.18-5.3-.15-10.59a136.14,136.14,0,0,0-16-1.25c-2.08,0-3.48-.44-4,1.76S555.25,412.92,555.7,415.05Z"
          transform="translate(-75 -152.99)" fill="#a0616a"/>
    <path d="M564.8,453.61a78.77,78.77,0,0,0-12-16,10.8,10.8,0,0,1-2.51-3.29,10,10,0,0,1-.56-3.18l-.36-5.29a1.23,1.23,0,0,0-.27-.82,1.19,1.19,0,0,0-.81-.23,6.77,6.77,0,0,0-3.71.54,10.4,10.4,0,0,0-2,1.84c-2.29,2.35-5.51,3.46-8.53,4.73a68.63,68.63,0,0,0-6.58,3.17c-1.69.93-3.43,2-4.19,3.8a9.39,9.39,0,0,0-.54,3.58L522,485a2.25,2.25,0,0,1-1.68,2.51,6.1,6.1,0,0,0-2.32,1.77,2.4,2.4,0,0,0-.09,2.75c.3.39.76.63,1.07,1,1,1.19.13,2.91-.54,4.29a9.32,9.32,0,0,0-1,5.81,5,5,0,0,0,3.92,4c.79-2.55-1-5.44,0-7.91a5.67,5.67,0,0,1,3.42-2.85,12.29,12.29,0,0,1,6.24-.68l1.2,4.37c4.31,15.74,1.32,32.65-2.61,48.49-.91,3.7-2.06,7.34-2.74,11.09-1,5.63-1,11.38-1,17.1l0,15.64c0,1.9.12,4.05,1.57,5.28s4.12,1.14,5.21,2.84c.63,1,.51,2.29,1.08,3.31a4.38,4.38,0,0,0,1.7,1.55,11.44,11.44,0,0,0,14.91-3.66c1.08-1.71,1.73-3.78,3.33-5,1.83-1.43,4.37-1.39,6.68-1.28l13.62.65a28.19,28.19,0,0,1,6.92.91,53.46,53.46,0,0,1,5.88,2.54,30.29,30.29,0,0,0,13.77,2.5,8,8,0,0,0,3.72-.9c1.3-.78,2.2-2.2,3.63-2.73,1.61-.6,3.68,0,4.93-1.17a4.47,4.47,0,0,0,1-3.17l.57-13.37c.6-13.79,1.13-28-3.42-41-1.11-3.17-2.51-6.24-3.36-9.49A93.86,93.86,0,0,1,606,520c-1.41-9.51-4.62-18.87-4-28.46,0-.73.64-.9,1.36-1,2.54-.25,5.31.22,7.12,2,1.61,1.6,2.18,4,2.36,6.23a7,7,0,0,1-.86,4.68l3.76-2.76c1.2-.88,2.54-2.09,2.3-3.56-.71-4.37-.47-9.26-1-13.65a199.36,199.36,0,0,0-3.59-22.16A58.25,58.25,0,0,1,612,455c-.36-2.92-.16-5.87-.35-8.81a33.18,33.18,0,0,0-3.14-12,12.26,12.26,0,0,0-2-3.18,13.94,13.94,0,0,0-3.88-2.68A79.93,79.93,0,0,0,583,421.2c-1.35-.29-2.9-.51-4,.33-1.4,1.08-1.24,3.25-.62,4.91s1.57,3.33,1.3,5.08-1.76,3.13-3,4.52c-3.17,3.71-4.61,8.71-8,12.25C567.23,449.92,565.13,451.37,564.8,453.61Z"
          transform="translate(-75 -152.99)" fill="#ff6f61"/>
    <path d="M552.07,386.46c1.73,1.44,3.18,3.44,5.38,3.91,5.3,1.12,9.44-7.45,14.54-5.62,1.86.67,3,2.52,4.43,3.82a8.77,8.77,0,0,0,12-.87c2.68-3.13,2.71-7.65,2.61-11.77a8.85,8.85,0,0,0-.89-4.42,7.12,7.12,0,0,0-1.77-1.86c-6.05-4.73-14.22-5.41-21.88-5.9a16,16,0,0,0-5,.21c-2.28.58-4.16,2.12-6,3.62-3.44,2.86-11.81,8.3-12.86,12.91S548.67,383.64,552.07,386.46Z"
          transform="translate(-75 -152.99)" fill="#393859"/>
    <rect x="453.12" y="295.07" width="74.28" height="80.43" rx="2.61" fill="#6c63ff"/>
    <rect x="459.52" y="302.01" width="61.48" height="48.65" rx="2.61" fill="#fff"/>
    <path d="M588,480.46v0a5.8,5.8,0,0,0-.27-1.46l0-.07a5.53,5.53,0,0,0-9.36-1.9,7.35,7.35,0,0,0-.44-1.54,24.69,24.69,0,0,1-4.38.16,16.21,16.21,0,0,0,2.78,1l0,.13a18.07,18.07,0,0,1-3.1-1.16l-.3-.15.33,0a24.17,24.17,0,0,0,4.66-.13,7.72,7.72,0,0,0-1.37-2.18,23.49,23.49,0,0,1-7.32-1.82l.06-.12a23.14,23.14,0,0,0,7.13,1.79,7.83,7.83,0,0,0-12.45,1.33,10.74,10.74,0,0,0-2.67-6.05,25.14,25.14,0,0,1-10.58,1.76,18.48,18.48,0,0,0,2.78,1l0,.12a18.07,18.07,0,0,1-3.1-1.16l-.3-.14.33,0a24.79,24.79,0,0,0,10.82-1.72c-.13-.14-.26-.28-.4-.41-4.29.09-8.95,0-13.18-1.5a10.8,10.8,0,0,0-5.12,9.19,25.33,25.33,0,0,0,1.52,7.6,32.44,32.44,0,0,0,1.52,3.66c.3.6.61,1.18.94,1.74h0a20.87,20.87,0,0,0,1.31,2l.26.33a11.48,11.48,0,0,0,1.64,1.69h0a4.57,4.57,0,0,0,.36.29,7.58,7.58,0,0,0,1.05.66,4.87,4.87,0,0,0,2,.53h.17v0h29.27v0h0a1.62,1.62,0,0,0,.49-.08c1-.37,2-1.85,2.79-3.71.17-.41.34-.84.5-1.29s.27-.79.4-1.19c.38-1.22.69-2.47.92-3.6a18.77,18.77,0,0,0,.43-3.35Z"
          transform="translate(-75 -152.99)" fill="#6c63ff" opacity="0.3"/>
    <path d="M560.65,467.65a10.72,10.72,0,0,0-12.91-1.45C551.88,467.68,556.44,467.73,560.65,467.65Z"
          transform="translate(-75 -152.99)" fill="#6c63ff" opacity="0.3"/>
    <path d="M584.63,491.7l-4.52-7.82a.14.14,0,0,0-.25,0l-4.52,7.82a.15.15,0,0,0,.13.22h1.35a.14.14,0,0,1,.14.14v1.68a.14.14,0,0,0,.14.14h1.76a.15.15,0,0,0,.15-.14v-.81a.15.15,0,0,1,.14-.15h1.67a.15.15,0,0,1,.15.15v.81a.14.14,0,0,0,.14.14h1.76a.13.13,0,0,0,.13-.1.06.06,0,0,0,0,0v-1.68a.15.15,0,0,1,.15-.14h1.34A.15.15,0,0,0,584.63,491.7Zm-6.3.87a.13.13,0,0,1-.1,0h-.64a.14.14,0,0,1-.14-.14.15.15,0,0,1,0-.1.14.14,0,0,1,.1-.05h.64a.15.15,0,0,1,.14.15A.13.13,0,0,1,578.33,492.57Zm4.15,0a.13.13,0,0,1-.1,0h-.64a.14.14,0,0,1-.14-.14.15.15,0,0,1,0-.1.14.14,0,0,1,.1-.05h.64a.15.15,0,0,1,.14.15A.13.13,0,0,1,582.48,492.57Z"
          transform="translate(-75 -152.99)" fill="#6c63ff" opacity="0.3"/>
    <path d="M556.7,491.77,552.19,484a.14.14,0,0,0-.25,0L548,490.71a11.91,11.91,0,0,0,1.64,1.68h.63a.15.15,0,0,1,.15.15.14.14,0,0,1-.05.1.15.15,0,0,1-.1,0H550a8.55,8.55,0,0,0,1.05.65V493a.15.15,0,0,1,.14-.15h1.68a.15.15,0,0,1,.14.15v.8a.35.35,0,0,0,0,.06.17.17,0,0,0,.13.09h1.76a.14.14,0,0,0,.12-.06.12.12,0,0,0,0-.09v-1.67a.14.14,0,0,1,.14-.14h1.35A.14.14,0,0,0,556.7,491.77Zm-3,.66a.15.15,0,0,1,.1,0h.63a.15.15,0,0,1,.15.15.14.14,0,0,1-.05.1.15.15,0,0,1-.1,0h-.63a.15.15,0,0,1-.15-.14A.16.16,0,0,1,553.72,492.43Zm-2.84-2.89a.15.15,0,0,1-.15-.15V488.3a.15.15,0,0,1,.15-.14h2.36a.15.15,0,0,1,.15.14v1.09a.15.15,0,0,1-.15.15Z"
          transform="translate(-75 -152.99)" fill="#6c63ff" opacity="0.3"/>
    <path d="M574.56,477.71H569v-1.2a.29.29,0,0,0-.29-.29H567v-1.29a.18.18,0,0,0-.18-.18h-2.12a.18.18,0,0,0-.18.18v1.29h-1.93a.29.29,0,0,0-.29.29v1.2H557a.06.06,0,0,0-.06.06v16.06a.06.06,0,0,0,.06.05h3.54s.06,0,.06-.05v-2.16a.06.06,0,0,1,.06-.06h1.5a.06.06,0,0,1,.06.06v2.16s0,.05.06.05h7a.06.06,0,0,0,.06-.05v-2.16s0-.06,0-.06h1.5a.06.06,0,0,1,.06.06v2.16a.06.06,0,0,0,.06.05h3.54a.06.06,0,0,0,.06-.05V477.77A.06.06,0,0,0,574.56,477.71ZM560,490.86a.06.06,0,0,1-.06.06h-2.19a.06.06,0,0,1-.06-.06v-.75a.06.06,0,0,1,.06-.06h2.19a.06.06,0,0,1,.06.06Zm0-1.93a.06.06,0,0,1-.06.06h-2.19a.06.06,0,0,1-.06-.06v-.75a.06.06,0,0,1,.06-.06h2.19a.06.06,0,0,1,.06.06Zm0-1.93a.06.06,0,0,1-.06.05h-2.19a.06.06,0,0,1-.06-.05v-.75a.06.06,0,0,1,.06-.06h2.19a.06.06,0,0,1,.06.06Zm0-1.94a.06.06,0,0,1-.06.06h-2.19a.06.06,0,0,1-.06-.06v-.74a.06.06,0,0,1,.06-.06h2.19a.06.06,0,0,1,.06.06Zm0-1.93a.06.06,0,0,1-.06.06h-2.19a.06.06,0,0,1-.06-.06v-.74a.06.06,0,0,1,.06-.06h2.19a.06.06,0,0,1,.06.06Zm0-1.93a.06.06,0,0,1-.06.06h-2.19a.06.06,0,0,1-.06-.06v-.75a.06.06,0,0,1,.06-.05h2.19a.06.06,0,0,1,.06.05Zm0-1.93a.06.06,0,0,1-.06.06h-2.19a.06.06,0,0,1-.06-.06v-.75a.06.06,0,0,1,.06-.06h2.19a.06.06,0,0,1,.06.06Zm5.19,11.59a.06.06,0,0,1-.06.06h-2.19a.06.06,0,0,1-.06-.06v-.75a.06.06,0,0,1,.06-.06h2.19a.06.06,0,0,1,.06.06Zm0-1.93a.06.06,0,0,1-.06.06h-2.19a.06.06,0,0,1-.06-.06v-.75a.06.06,0,0,1,.06-.06h2.19a.06.06,0,0,1,.06.06Zm0-1.93a.06.06,0,0,1-.06.05h-2.19a.06.06,0,0,1-.06-.05v-.75a.06.06,0,0,1,.06-.06h2.19a.06.06,0,0,1,.06.06Zm0-1.94a.06.06,0,0,1-.06.06h-2.19a.06.06,0,0,1-.06-.06v-.74a.06.06,0,0,1,.06-.06h2.19a.06.06,0,0,1,.06.06Zm0-1.93a.06.06,0,0,1-.06.06h-2.19a.06.06,0,0,1-.06-.06v-.74a.06.06,0,0,1,.06-.06h2.19a.06.06,0,0,1,.06.06Zm0-1.93a.06.06,0,0,1-.06.06h-2.19a.06.06,0,0,1-.06-.06v-.75a.06.06,0,0,1,.06-.05h2.19a.06.06,0,0,1,.06.05Zm0-1.93a.06.06,0,0,1-.06.06h-2.19a.06.06,0,0,1-.06-.06v-.75a.06.06,0,0,1,.06-.06h2.19a.06.06,0,0,1,.06.06Zm3.54,11.59a.06.06,0,0,1-.06.06h-2.19a.06.06,0,0,1-.05-.06v-.75a.06.06,0,0,1,.05-.06h2.19a.06.06,0,0,1,.06.06Zm0-1.93a.06.06,0,0,1-.06.06h-2.19a.06.06,0,0,1-.05-.06v-.75a.06.06,0,0,1,.05-.06h2.19a.06.06,0,0,1,.06.06Zm0-1.93s0,.05-.06.05h-2.19a0,0,0,0,1-.05-.05v-.75a.06.06,0,0,1,.05-.06h2.19a.06.06,0,0,1,.06.06Zm0-1.94a.05.05,0,0,1-.06.06h-2.19s-.05,0-.05-.06v-.74s0-.06.05-.06h2.19a.05.05,0,0,1,.06.06Zm0-1.93a.05.05,0,0,1-.06.06h-2.19s-.05,0-.05-.06v-.74s0-.06.05-.06h2.19a.05.05,0,0,1,.06.06Zm0-1.93a.06.06,0,0,1-.06.06h-2.19a.06.06,0,0,1-.05-.06v-.75a0,0,0,0,1,.05-.05h2.19s.06,0,.06.05Zm0-1.93a.06.06,0,0,1-.06.06h-2.19a.06.06,0,0,1-.05-.06v-.75a.06.06,0,0,1,.05-.06h2.19a.06.06,0,0,1,.06.06Zm5.19,11.59a.06.06,0,0,1-.06.06h-2.19a.06.06,0,0,1-.06-.06v-.75a.06.06,0,0,1,.06-.06h2.19a.06.06,0,0,1,.06.06Zm0-1.93a.06.06,0,0,1-.06.06h-2.19a.06.06,0,0,1-.06-.06v-.75a.06.06,0,0,1,.06-.06h2.19a.06.06,0,0,1,.06.06Zm0-1.93a.06.06,0,0,1-.06.05h-2.19a.06.06,0,0,1-.06-.05v-.75a.06.06,0,0,1,.06-.06h2.19a.06.06,0,0,1,.06.06Zm0-1.94a.06.06,0,0,1-.06.06h-2.19a.06.06,0,0,1-.06-.06v-.74a.06.06,0,0,1,.06-.06h2.19a.06.06,0,0,1,.06.06Zm0-1.93a.06.06,0,0,1-.06.06h-2.19a.06.06,0,0,1-.06-.06v-.74a.06.06,0,0,1,.06-.06h2.19a.06.06,0,0,1,.06.06Zm0-1.93a.06.06,0,0,1-.06.06h-2.19a.06.06,0,0,1-.06-.06v-.75a.06.06,0,0,1,.06-.05h2.19a.06.06,0,0,1,.06.05Zm0-1.93a.06.06,0,0,1-.06.06h-2.19a.06.06,0,0,1-.06-.06v-.75a.06.06,0,0,1,.06-.06h2.19a.06.06,0,0,1,.06.06Z"
          transform="translate(-75 -152.99)" fill="#6c63ff" opacity="0.3"/>
    <path d="M558.64,473.36a1.38,1.38,0,0,0-.73.08,1,1,0,0,1-.88,0,1.23,1.23,0,0,0-1,0,.61.61,0,0,1-.3.08c-.42,0-.77-.43-.84-1a.77.77,0,0,0,.21-.23,1.28,1.28,0,0,1,1-.65,1.27,1.27,0,0,1,1,.65.81.81,0,0,0,.69.38h0A.87.87,0,0,1,558.64,473.36Z"
          transform="translate(-75 -152.99)" fill="#6c63ff" opacity="0.1"/>
    <path d="M559.91,471.62l-.67.43.41-.75a.7.7,0,0,0-.41-.14h-.15l-.23.14.09-.18a.79.79,0,0,1-.4-.3l-.41.26.26-.47a1.2,1.2,0,0,0-.92-.47,1.28,1.28,0,0,0-1.05.65.79.79,0,0,1-.69.38h0c-.47,0-.85.53-.85,1.19s.38,1.19.85,1.19a.73.73,0,0,0,.3-.07,1.2,1.2,0,0,1,1,0,1.12,1.12,0,0,0,.44.09,1.08,1.08,0,0,0,.44-.09,1.21,1.21,0,0,1,1,0,.73.73,0,0,0,.3.07c.47,0,.85-.53.85-1.19A1.52,1.52,0,0,0,559.91,471.62Z"
          transform="translate(-75 -152.99)" fill="#6c63ff" opacity="0.1"/>
    <ellipse cx="450.81" cy="350.66" rx="6.15" ry="10.25" fill="#a0616a"/>
    <ellipse cx="531.76" cy="345.53" rx="6.15" ry="10.25" fill="#a0616a"/>
</svg>